%YAML 1.1
%TAG !u! tag:unity3d.com,2011:
--- !u!114 &11400000
MonoBehaviour:
  m_ObjectHideFlags: 0
  m_PrefabParentObject: {fileID: 0}
  m_PrefabInternal: {fileID: 0}
  m_GameObject: {fileID: 0}
  m_Enabled: 1
  m_EditorHideFlags: 0
  m_Script: {fileID: 11500000, guid: be54af1b089d49d478d31ec8bc0e901c, type: 3}
  m_Name: Hunger
  m_EditorClassIdentifier: 
  set:
  - name: Sated
    membershipFunction:
      serializedVersion: 2
      m_Curve:
      - time: 0
        value: 0
        inSlope: 0
        outSlope: -0
        tangentMode: 21
      - time: .699999988
        value: 0
        inSlope: 0
        outSlope: 4.99999905
        tangentMode: 21
      - time: .900000036
        value: 1
        inSlope: 4.99999905
        outSlope: -0
        tangentMode: 21
      - time: 1
        value: 1
        inSlope: 0
        outSlope: -3.42870474
        tangentMode: 21
      m_PreInfinity: 2
      m_PostInfinity: 2
  - name: Somewhat Hungry
    membershipFunction:
      serializedVersion: 2
      m_Curve:
      - time: 0
        value: 0
        inSlope: 0
        outSlope: -0
        tangentMode: 21
      - time: .399999976
        value: 0
        inSlope: 0
        outSlope: 5.00000048
        tangentMode: 21
      - time: .599999964
        value: 1
        inSlope: 5.00000048
        outSlope: -5.00000048
        tangentMode: 21
      - time: .799999952
        value: 0
        inSlope: -5.00000048
        outSlope: -0
        tangentMode: 21
      - time: 1
        value: 0
        inSlope: 0
        outSlope: 0
        tangentMode: 21
      m_PreInfinity: 2
      m_PostInfinity: 2
  - name: Pretty Hungry
    membershipFunction:
      serializedVersion: 2
      m_Curve:
      - time: 0
        value: 0
        inSlope: 0
        outSlope: -0
        tangentMode: 21
      - time: .199999988
        value: 0
        inSlope: 0
        outSlope: 6.66666651
        tangentMode: 21
      - time: .349999994
        value: 1
        inSlope: 6.66666651
        outSlope: -6.66666651
        tangentMode: 21
      - time: .5
        value: 0
        inSlope: -6.66666651
        outSlope: -0
        tangentMode: 21
      - time: 1
        value: 0
        inSlope: 0
        outSlope: 0
        tangentMode: 21
      m_PreInfinity: 2
      m_PostInfinity: 2
  - name: Starving
    membershipFunction:
      serializedVersion: 2
      m_Curve:
      - time: 0
        value: 1
        inSlope: 2.85714293
        outSlope: -4
        tangentMode: 21
      - time: .25
        value: 0
        inSlope: -4
        outSlope: -0
        tangentMode: 21
      - time: 1
        value: 0
        inSlope: 0
        outSlope: 0
        tangentMode: 21
      m_PreInfinity: 2
      m_PostInfinity: 2
